simulation/qsim/Hackathon.msim.vcd
$comment
	File created using the following command:
		vcd file Hackathon.msim.vcd -direction
$end
$date
	Mon May 20 14:14:18 2024
$end
$version
	ModelSim Version 10.1d
$end
$timescale
	1ps
$end
$scope module Hackathon_vlg_vec_tst $end
$var reg 1 ! clk $end
$var reg 1 " reset $end
$var wire 1 # green_MR1 $end
$var wire 1 $ green_MR2 $end
$var wire 1 % green_MR3 $end
$var wire 1 & red_MR1 $end
$var wire 1 ' red_MR2 $end
$var wire 1 ( red_MR3 $end
$var wire 1 ) yellow_MR1 $end
$var wire 1 * yellow_MR2 $end
$var wire 1 + yellow_MR3 $end
$scope module i1 $end
$var wire 1 , gnd $end
$var wire 1 - vcc $end
$var wire 1 . unknown $end
$var tri1 1 / devclrn $end
$var tri1 1 0 devpor $end
$var tri1 1 1 devoe $end
$var wire 1 2 ~QUARTUS_CREATED_GND~I_combout $end
$var wire 1 3 clk~input_o $end
$var wire 1 4 clk~inputCLKENA0_outclk $end
$var wire 1 5 counter[0]~3_combout $end
$var wire 1 6 reset~input_o $end
$var wire 1 7 counter[3]~0_combout $end
$var wire 1 8 counter~2_combout $end
$var wire 1 9 counter[0]~DUPLICATE_q $end
$var wire 1 : counter~1_combout $end
$var wire 1 ; state.S_GREEN_MR1~q $end
$var wire 1 < Selector2~0_combout $end
$var wire 1 = state.S_GREEN_MR2~q $end
$var wire 1 > Selector3~0_combout $end
$var wire 1 ? state.S_GREEN_MR3~q $end
$var wire 1 @ Selector0~0_combout $end
$var wire 1 A state.S_RED~q $end
$var wire 1 B Selector1~0_combout $end
$var wire 1 C state.S_GREEN_MR1~DUPLICATE_q $end
$var wire 1 D state.S_GREEN_MR2~DUPLICATE_q $end
$var wire 1 E state.S_GREEN_MR3~DUPLICATE_q $end
$var wire 1 F red_MR3~0_combout $end
$var wire 1 G counter [3] $end
$var wire 1 H counter [2] $end
$var wire 1 I counter [1] $end
$var wire 1 J counter [0] $end
$upscope $end
$upscope $end
$enddefinitions $end
#0
$dumpvars
0!
0"
0#
0$
0%
1&
1'
0(
0)
0*
0+
0,
1-
x.
1/
10
11
02
03
04
15
06
07
08
09
0:
0;
0<
0=
0>
0?
0@
0A
0B
0C
0D
0E
1F
0J
0I
0H
0G
$end
#2500
1"
16
#5000
1!
13
14
#10000
0"
0!
06
03
04
#12500
1"
16
#15000
1!
13
14
#20000
0"
0!
06
03
04
#22500
1"
16
#25000
1!
13
14
#30000
0"
0!
06
03
04
#32500
1"
16
#35000
1!
13
14
#40000
0"
0!
06
03
04
#42500
1"
16
#45000
1!
13
14
#50000
0"
0!
06
03
04
#52500
1"
16
#55000
1!
13
14
#60000
0"
0!
06
03
04
#62500
1"
16
#65000
1!
13
14
#70000
0"
0!
06
03
04
#72500
1"
16
#75000
1!
13
14
#80000
0"
0!
06
03
04
#82500
1"
16
#85000
1!
13
14
#90000
0"
0!
06
03
04
#92500
1"
16
#95000
1!
13
14
#100000
0"
0!
06
03
04
#102500
1"
16
#105000
1!
13
14
#110000
0"
0!
06
03
04
#112500
1"
16
#115000
1!
13
14
#120000
0"
0!
06
03
04
#122500
1"
16
#125000
1!
13
14
#130000
0"
0!
06
03
04
#132500
1"
16
#135000
1!
13
14
#140000
0"
0!
06
03
04
#142500
1"
16
#145000
1!
13
14
#150000
0"
0!
06
03
04
#152500
1"
16
#155000
1!
13
14
#160000
0"
0!
06
03
04
#162500
1"
16
#165000
1!
13
14
#170000
0"
0!
06
03
04
#172500
1"
16
#175000
1!
13
14
#180000
0"
0!
06
03
04
#182500
1"
16
#185000
1!
13
14
#190000
0"
0!
06
03
04
#192500
1"
16
#195000
1!
13
14
#200000
0"
0!
06
03
04
#202500
1"
16
#205000
1!
13
14
#210000
0"
0!
06
03
04
#212500
1"
16
#215000
1!
13
14
#220000
0"
0!
06
03
04
#222500
1"
16
#225000
1!
13
14
#230000
0"
0!
06
03
04
#232500
1"
16
#235000
1!
13
14
#240000
0"
0!
06
03
04
#242500
1"
16
#245000
1!
13
14
#250000
0"
0!
06
03
04
#252500
1"
16
#255000
1!
13
14
#260000
0"
0!
06
03
04
#262500
1"
16
#265000
1!
13
14
#270000
0"
0!
06
03
04
#272500
1"
16
#275000
1!
13
14
#280000
0"
0!
06
03
04
#282500
1"
16
#285000
1!
13
14
#290000
0"
0!
06
03
04
#292500
1"
16
#295000
1!
13
14
#300000
0"
0!
06
03
04
#302500
1"
16
#305000
1!
13
14
#310000
0"
0!
06
03
04
#312500
1"
16
#315000
1!
13
14
#320000
0"
0!
06
03
04
#322500
1"
16
#325000
1!
13
14
#330000
0"
0!
06
03
04
#332500
1"
16
#335000
1!
13
14
#340000
0"
0!
06
03
04
#342500
1"
16
#345000
1!
13
14
#350000
0"
0!
06
03
04
#352500
1"
16
#355000
1!
13
14
#360000
0"
0!
06
03
04
#362500
1"
16
#365000
1!
13
14
#370000
0"
0!
06
03
04
#372500
1"
16
#375000
1!
13
14
#380000
0"
0!
06
03
04
#382500
1"
16
#385000
1!
13
14
#390000
0"
0!
06
03
04
#392500
1"
16
#395000
1!
13
14
#400000
0"
0!
06
03
04
#402500
1"
16
#405000
1!
13
14
#410000
0"
0!
06
03
04
#412500
1"
16
#415000
1!
13
14
#420000
0"
0!
06
03
04
#422500
1"
16
#425000
1!
13
14
#430000
0"
0!
06
03
04
#432500
1"
16
#435000
1!
13
14
#440000
0"
0!
06
03
04
#442500
1"
16
#445000
1!
13
14
#450000
0"
0!
06
03
04
#452500
1"
16
#455000
1!
13
14
#460000
0"
0!
06
03
04
#462500
1"
16
#465000
1!
13
14
#470000
0"
0!
06
03
04
#472500
1"
16
#475000
1!
13
14
#480000
0"
0!
06
03
04
#482500
1"
16
#485000
1!
13
14
#490000
0"
0!
06
03
04
#492500
1"
16
#495000
1!
13
14
#500000
0"
0!
06
03
04
#502500
1"
16
#505000
1!
13
14
#510000
0"
0!
06
03
04
#512500
1"
16
#515000
1!
13
14
#520000
0"
0!
06
03
04
#522500
1"
16
#525000
1!
13
14
#530000
0"
0!
06
03
04
#532500
1"
16
#535000
1!
13
14
#540000
0"
0!
06
03
04
#542500
1"
16
#545000
1!
13
14
#550000
0"
0!
06
03
04
#552500
1"
16
#555000
1!
13
14
#560000
0"
0!
06
03
04
#562500
1"
16
#565000
1!
13
14
#570000
0"
0!
06
03
04
#572500
1"
16
#575000
1!
13
14
#580000
0"
0!
06
03
04
#582500
1"
16
#585000
1!
13
14
#590000
0"
0!
06
03
04
#592500
1"
16
#595000
1!
13
14
#600000
0"
0!
06
03
04
#602500
1"
16
#605000
1!
13
14
#610000
0"
0!
06
03
04
#612500
1"
16
#615000
1!
13
14
#620000
0"
0!
06
03
04
#622500
1"
16
#625000
1!
13
14
#630000
0"
0!
06
03
04
#632500
1"
16
#635000
1!
13
14
#640000
0"
0!
06
03
04
#642500
1"
16
#645000
1!
13
14
#650000
0"
0!
06
03
04
#652500
1"
16
#655000
1!
13
14
#660000
0"
0!
06
03
04
#662500
1"
16
#665000
1!
13
14
#670000
0"
0!
06
03
04
#672500
1"
16
#675000
1!
13
14
#680000
0"
0!
06
03
04
#682500
1"
16
#685000
1!
13
14
#690000
0"
0!
06
03
04
#692500
1"
16
#695000
1!
13
14
#700000
0"
0!
06
03
04
#702500
1"
16
#705000
1!
13
14
#710000
0"
0!
06
03
04
#712500
1"
16
#715000
1!
13
14
#720000
0"
0!
06
03
04
#722500
1"
16
#725000
1!
13
14
#730000
0"
0!
06
03
04
#732500
1"
16
#735000
1!
13
14
#740000
0"
0!
06
03
04
#742500
1"
16
#745000
1!
13
14
#750000
0"
0!
06
03
04
#752500
1"
16
#755000
1!
13
14
#760000
0"
0!
06
03
04
#762500
1"
16
#765000
1!
13
14
#770000
0"
0!
06
03
04
#772500
1"
16
#775000
1!
13
14
#780000
0"
0!
06
03
04
#782500
1"
16
#785000
1!
13
14
#790000
0"
0!
06
03
04
#792500
1"
16
#795000
1!
13
14
#800000
0"
0!
06
03
04
#802500
1"
16
#805000
1!
13
14
#810000
0"
0!
06
03
04
#812500
1"
16
#815000
1!
13
14
#820000
0"
0!
06
03
04
#822500
1"
16
#825000
1!
13
14
#830000
0"
0!
06
03
04
#832500
1"
16
#835000
1!
13
14
#840000
0"
0!
06
03
04
#842500
1"
16
#845000
1!
13
14
#850000
0"
0!
06
03
04
#852500
1"
16
#855000
1!
13
14
#860000
0"
0!
06
03
04
#862500
1"
16
#865000
1!
13
14
#870000
0"
0!
06
03
04
#872500
1"
16
#875000
1!
13
14
#880000
0"
0!
06
03
04
#882500
1"
16
#885000
1!
13
14
#890000
0"
0!
06
03
04
#892500
1"
16
#895000
1!
13
14
#900000
0"
0!
06
03
04
#902500
1"
16
#905000
1!
13
14
#910000
0"
0!
06
03
04
#912500
1"
16
#915000
1!
13
14
#920000
0"
0!
06
03
04
#922500
1"
16
#925000
1!
13
14
#930000
0"
0!
06
03
04
#932500
1"
16
#935000
1!
13
14
#940000
0"
0!
06
03
04
#942500
1"
16
#945000
1!
13
14
#950000
0"
0!
06
03
04
#952500
1"
16
#955000
1!
13
14
#960000
0"
0!
06
03
04
#962500
1"
16
#965000
1!
13
14
#970000
0"
0!
06
03
04
#972500
1"
16
#975000
1!
13
14
#980000
0"
0!
06
03
04
#982500
1"
16
#985000
1!
13
14
#990000
0"
0!
06
03
04
#992500
1"
16
#995000
1!
13
14
